P	x1	y1	lnY1
15,79	0	0	
17,51	0,0932	0,1794	-0,72167
18,15	0,1248	0,2383	-0,69382
19,3	0,1757	0,3302	-0,64828
19,89	0,2	0,3691	-0,63634
21,37	0,2626	0,4628	-0,61066
24,95	0,3615	0,6184	-0,48556
29,82	0,475	0,7552	-0,38046
34,8	0,5555	0,8378	-0,27878
42,1	0,6718	0,9137	-0,19172
60,38	0,878	0,986	-0,02264
65,39	0,9398	0,9945	-0,00237
69,36	1	1	0
