﻿P;x1;y1
69,38;0,000;0,000
66,11;0,104;0,066
63,07;0,198;0,153
61,25;0,298;0,269
60,60;0,401;0,414
62,01;0,502;0,562
64,53;0,591;0,676
68,29;0,695;0,793
72,75;0,797;0,879
77,13;0,895;0,946
81,75;1,000;1,000
